wave.vcd
$date
	Fri Jun 26 15:51:35 2026
$end
$version
	Icarus Verilog
$end
$timescale
	1ps
$end
$scope module sobel_pipeline_tb $end
$var wire 10 ! y_edge_pixel [9:0] $end
$var wire 10 " x_edge_pixel [9:0] $end
$var wire 8 # right2 [7:0] $end
$var wire 8 $ right1 [7:0] $end
$var wire 8 % right0 [7:0] $end
$var wire 8 & mid2 [7:0] $end
$var wire 8 ' mid1 [7:0] $end
$var wire 8 ( mid0 [7:0] $end
$var wire 8 ) left2 [7:0] $end
$var wire 8 * left1 [7:0] $end
$var wire 8 + left0 [7:0] $end
$var wire 11 , edge_scaled [10:0] $end
$var parameter 32 - HEIGHT $end
$var parameter 32 . NUM_PIXELS $end
$var parameter 32 / WIDTH $end
$var parameter 32 0 dimension $end
$var reg 1 1 clk $end
$var reg 8 2 in_pixel [7:0] $end
$var reg 1 3 reset $end
$var reg 1 4 valid $end
$var integer 32 5 i [31:0] $end
$scope module convolution_tb $end
$var wire 8 6 right2 [7:0] $end
$var wire 8 7 right1 [7:0] $end
$var wire 8 8 right0 [7:0] $end
$var wire 8 9 mid2 [7:0] $end
$var wire 8 : mid1 [7:0] $end
$var wire 8 ; mid0 [7:0] $end
$var wire 8 < left2 [7:0] $end
$var wire 8 = left1 [7:0] $end
$var wire 8 > left0 [7:0] $end
$var parameter 32 ? scaleFactor $end
$var reg 8 @ edge_pixel [7:0] $end
$var reg 11 A edge_scaled [10:0] $end
$var reg 11 B sumx [10:0] $end
$var reg 11 C sumy [10:0] $end
$var reg 10 D x_edge_pixel [9:0] $end
$var reg 10 E y_edge_pixel [9:0] $end
$upscope $end
$scope module wg_tb $end
$var wire 1 1 clk $end
$var wire 8 F pixel [7:0] $end
$var wire 1 3 reset $end
$var wire 1 4 valid $end
$var wire 8 G p_pixel [7:0] $end
$var wire 8 H o_pixel [7:0] $end
$var parameter 32 I IMAGE_WIDTH $end
$var reg 4 J col_counter [3:0] $end
$var reg 8 K left0 [7:0] $end
$var reg 8 L left1 [7:0] $end
$var reg 8 M left2 [7:0] $end
$var reg 8 N mid0 [7:0] $end
$var reg 8 O mid1 [7:0] $end
$var reg 8 P mid2 [7:0] $end
$var reg 8 Q right0 [7:0] $end
$var reg 8 R right1 [7:0] $end
$var reg 8 S right2 [7:0] $end
$scope module old_line $end
$var wire 1 1 clk $end
$var wire 4 T col_counter [3:0] $end
$var wire 8 U out_pixel [7:0] $end
$var wire 1 3 reset $end
$var wire 1 4 valid $end
$var wire 8 V pixel [7:0] $end
$var parameter 32 W IMAGE_WIDTH $end
$var integer 32 X i [31:0] $end
$upscope $end
$scope module prev_line $end
$var wire 1 1 clk $end
$var wire 4 Y col_counter [3:0] $end
$var wire 8 Z out_pixel [7:0] $end
$var wire 8 [ pixel [7:0] $end
$var wire 1 3 reset $end
$var wire 1 4 valid $end
$var parameter 32 \ IMAGE_WIDTH $end
$var integer 32 ] i [31:0] $end
$upscope $end
$upscope $end
$upscope $end
$enddefinitions $end
$comment Show the parameter values. $end
$dumpall
b1000 \
b1000 W
b1000 I
b0 ?
b11 0
b1000 /
b1000000 .
b1000 -
$end
#0
$dumpvars
b0 ]
bx [
bx Z
bx Y
b0 X
bx V
bx U
bx T
bx S
bx R
bx Q
bx P
bx O
bx N
bx M
bx L
bx K
bx J
bx H
bx G
bx F
bx E
bx D
bx C
bx B
b0xxxxxxxx A
bx @
bx >
bx =
bx <
bx ;
bx :
bx 9
bx 8
bx 7
bx 6
b0 5
04
13
bx 2
01
b0xxxxxxxx ,
bx +
bx *
bx )
bx (
bx '
bx &
bx %
bx $
bx #
bx "
bx !
$end
#5000
b0 H
b0 U
b0 G
b0 V
b0 Z
b0 ,
b0 A
b0 @
b0 !
b0 E
b0 C
b0 "
b0 D
b0 B
b0 J
b0 T
b0 Y
b0 #
b0 6
b0 S
b0 &
b0 9
b0 P
b0 )
b0 <
b0 M
b0 $
b0 7
b0 R
b0 '
b0 :
b0 O
b0 *
b0 =
b0 L
b0 %
b0 8
b0 Q
b0 (
b0 ;
b0 N
b0 +
b0 >
b0 K
b1000 ]
b1000 X
11
#10000
01
#12000
14
03
#15000
b0xxxxxxxx ,
b0xxxxxxxx A
bx @
bx !
bx E
bx C
bx "
bx D
bx B
b1 J
b1 T
b1 Y
bx #
bx 6
bx S
b0 G
b0 V
b0 Z
11
#20000
b10101010 2
b10101010 F
b10101010 [
01
#25000
b10101010 "
b10101010 D
b10101010 B
b0 G
b0 V
b0 Z
b10 J
b10 T
b10 Y
b10101010 #
b10101010 6
b10101010 S
bx &
bx 9
bx P
11
#30000
b1 5
01
#35000
bx "
bx D
bx B
b11 J
b11 T
b11 Y
b10101010 &
b10101010 9
b10101010 P
bx )
bx <
bx M
b0 G
b0 V
b0 Z
11
#40000
b10111010 2
b10111010 F
b10111010 [
01
#45000
b11001000 ,
b11001000 A
b11001000 @
b1010111000 !
b1010111000 E
b1010111000 C
b10000 "
b10000 D
b10000 B
b0 G
b0 V
b0 Z
b100 J
b100 T
b100 Y
b10111010 #
b10111010 6
b10111010 S
b10101010 )
b10101010 <
b10101010 M
11
#50000
b10 5
01
#55000
b11101000 ,
b11101000 A
b11101000 @
b1011011000 !
b1011011000 E
b1011011000 C
b101 J
b101 T
b101 Y
b10111010 &
b10111010 9
b10111010 P
b0 G
b0 V
b0 Z
11
#60000
b10101010 2
b10101010 F
b10101010 [
01
#65000
b11111110000 B
b0 G
b0 V
b0 Z
b110 J
b110 T
b110 Y
b10101010 #
b10101010 6
b10101010 S
b10111010 )
b10111010 <
b10111010 M
11
#70000
b11 5
01
#75000
b11001000 ,
b11001000 A
b11001000 @
b1010111000 !
b1010111000 E
b1010111000 C
b111 J
b111 T
b111 Y
b10101010 &
b10101010 9
b10101010 P
b0 G
b0 V
b0 Z
11
#80000
01
#85000
b10101000 ,
b10101000 A
b10101000 @
b1010101000 !
b1010101000 E
b1010101000 C
b0 "
b0 D
b0 B
bx G
bx V
bx Z
b0 J
b0 T
b0 Y
b10101010 )
b10101010 <
b10101010 M
11
#90000
b100 5
01
#95000
b0xxxxxxxx ,
b0xxxxxxxx A
bx @
b10101010 !
b10101010 E
b10101010 C
bx "
bx D
bx B
b1 J
b1 T
b1 Y
b0 &
b0 9
b0 P
b0 )
b0 <
b0 M
bx $
bx 7
bx R
b0 H
b0 U
b10101010 G
b10101010 V
b10101010 Z
11
#100000
b10101011 2
b10101011 F
b10101011 [
01
#105000
b11111110 ,
b11111110 A
b11111110 @
b111111111 !
b111111111 E
b111111111 C
b111111111 "
b111111111 D
b111111111 B
b10101010 G
b10101010 V
b10101010 Z
b0 H
b0 U
b10 J
b10 T
b10 Y
b10101011 #
b10101011 6
b10101011 S
b10101010 &
b10101010 9
b10101010 P
b10101010 $
b10101010 7
b10101010 R
bx '
bx :
bx O
11
#110000
b101 5
01
#115000
b0xxxxxxxx ,
b0xxxxxxxx A
bx @
b1010101011 !
b1010101011 E
b1010101011 C
bx "
bx D
bx B
b11 J
b11 T
b11 Y
b10101011 &
b10101011 9
b10101011 P
b10101010 )
b10101010 <
b10101010 M
b10101010 '
b10101010 :
b10101010 O
bx *
bx =
bx L
b0 H
b0 U
b10111010 G
b10111010 V
b10111010 Z
11
#120000
b10101111 2
b10101111 F
b10101111 [
01
#125000
b11010100 ,
b11010100 A
b11010100 @
b1010110000 !
b1010110000 E
b1010110000 C
b100100 "
b100100 D
b100100 B
b10111010 G
b10111010 V
b10111010 Z
b0 H
b0 U
b100 J
b100 T
b100 Y
b10101111 #
b10101111 6
b10101111 S
b10101011 )
b10101011 <
b10101011 M
b10111010 $
b10111010 7
b10111010 R
b10101010 *
b10101010 =
b10101010 L
11
#130000
b110 5
01
#135000
b11011100 ,
b11011100 A
b11011100 @
b1010111000 !
b1010111000 E
b1010111000 C
b101 J
b101 T
b101 Y
b10101111 &
b10101111 9
b10101111 P
b10111010 '
b10111010 :
b10111010 O
b0 H
b0 U
b10101010 G
b10101010 V
b10101010 Z
11
#140000
b1101110 2
b1101110 F
b1101110 [
01
#145000
b1001111011 !
b1001111011 E
b1001111011 C
b1100001 "
b1100001 D
b11110011111 B
b10101010 G
b10101010 V
b10101010 Z
b0 H
b0 U
b110 J
b110 T
b110 Y
b1101110 #
b1101110 6
b1101110 S
b10101111 )
b10101111 <
b10101111 M
b10101010 $
b10101010 7
b10101010 R
b10111010 *
b10111010 =
b10111010 L
11
#150000
b111 5
01
#155000
b0 ,
b0 A
b1011010 @
b111111001 !
b111111001 E
b111111001 C
b111 J
b111 T
b111 Y
b1101110 &
b1101110 9
b1101110 P
b10101010 '
b10101010 :
b10101010 O
b0 H
b0 U
b10101010 G
b10101010 V
b10101010 Z
11
#160000
b10000010 2
b10000010 F
b10000010 [
01
#165000
b11100000 ,
b11100000 A
b11100000 @
b111001100 !
b111001100 E
b111001100 C
b10100 "
b10100 D
b10100 B
b10101010 G
b10101010 V
b10101010 Z
bx H
bx U
b0 J
b0 T
b0 Y
b10000010 #
b10000010 6
b10000010 S
b1101110 )
b1101110 <
b1101110 M
b10101010 *
b10101010 =
b10101010 L
11
#170000
b1000 5
01
#175000
b0xxxxxxxx ,
b0xxxxxxxx A
bx @
bx !
bx E
bx C
bx "
bx D
bx B
b1 J
b1 T
b1 Y
b0 &
b0 9
b0 P
b0 )
b0 <
b0 M
b0 '
b0 :
b0 O
b0 *
b0 =
b0 L
bx %
bx 8
bx Q
b10101010 H
b10101010 U
b10101011 G
b10101011 V
b10101011 Z
11
#180000
b101010 2
b101010 F
b101010 [
01
#185000
b1000101010 "
b1000101010 D
b1000101010 B
b10101011 G
b10101011 V
b10101011 Z
b10101010 H
b10101010 U
b10 J
b10 T
b10 Y
b101010 #
b101010 6
b101010 S
b10000010 &
b10000010 9
b10000010 P
b10101011 $
b10101011 7
b10101011 R
b10101010 '
b10101010 :
b10101010 O
b10101010 %
b10101010 8
b10101010 Q
bx (
bx ;
bx N
11
#190000
b1001 5
01
#195000
bx "
bx D
bx B
b11 J
b11 T
b11 Y
b101010 &
b101010 9
b101010 P
b10000010 )
b10000010 <
b10000010 M
b10101011 '
b10101011 :
b10101011 O
b10101010 *
b10101010 =
b10101010 L
b10101010 (
b10101010 ;
b10101010 N
bx +
bx >
bx K
b10111010 H
b10111010 U
b10101111 G
b10101111 V
b10101111 Z
11
#200000
b10110110 2
b10110110 F
b10110110 [
01
#205000
b0 ,
b0 A
b101000 @
b110000100 !
b110000100 E
b11001111100 C
b10100100 "
b10100100 D
b10100100 B
b10101111 G
b10101111 V
b10101111 Z
b10111010 H
b10111010 U
b100 J
b100 T
b100 Y
b10110110 #
b10110110 6
b10110110 S
b101010 )
b101010 <
b101010 M
b10101111 $
b10101111 7
b10101111 R
b10101011 *
b10101011 =
b10101011 L
b10111010 %
b10111010 8
b10111010 Q
b10101010 +
b10101010 >
b10101010 K
11
#210000
b1010 5
01
#215000
b0 ,
b0 A
b110000 @
b10001100 !
b10001100 E
b11101110100 C
b101 J
b101 T
b101 Y
b10110110 &
b10110110 9
b10110110 P
b10101111 '
b10101111 :
b10101111 O
b10111010 (
b10111010 ;
b10111010 N
b10101010 H
b10101010 U
b1101110 G
b1101110 V
b1101110 Z
11
#220000
01
#225000
b0 ,
b0 A
b10010010 @
b0 !
b0 E
b0 C
b10010010 "
b10010010 D
b11101101110 B
b1101110 G
b1101110 V
b1101110 Z
b10101010 H
b10101010 U
b110 J
b110 T
b110 Y
b10110110 )
b10110110 <
b10110110 M
b1101110 $
b1101110 7
b1101110 R
b10101111 *
b10101111 =
b10101111 L
b10101010 %
b10101010 8
b10101010 Q
b10111010 +
b10111010 >
b10111010 K
11
#230000
b1011 5
01
#235000
b10110010 ,
b10110010 A
b10110010 @
b100000 !
b100000 E
b100000 C
b111 J
b111 T
b111 Y
b1101110 '
b1101110 :
b1101110 O
b10101010 (
b10101010 ;
b10101010 N
b10101010 H
b10101010 U
b10000010 G
b10000010 V
b10000010 Z
11
#240000
b10011010 2
b10011010 F
b10011010 [
01
#245000
b0 ,
b0 A
b100000 @
b10100 !
b10100 E
b10100 C
b1100 "
b1100 D
b1100 B
b10000010 G
b10000010 V
b10000010 Z
b10101010 H
b10101010 U
b0 J
b0 T
b0 Y
b10011010 #
b10011010 6
b10011010 S
b10000010 $
b10000010 7
b10000010 R
b1101110 *
b1101110 =
b1101110 L
b10101010 +
b10101010 >
b10101010 K
11
#250000
b1100 5
01
#255000
b0 ,
b0 A
b1011000 @
b10000 !
b10000 E
b11111110000 C
b1001001000 "
b1001001000 D
b1001001000 B
b1 J
b1 T
b1 Y
b0 &
b0 9
b0 P
b0 )
b0 <
b0 M
b0 '
b0 :
b0 O
b0 *
b0 =
b0 L
b0 (
b0 ;
b0 N
b0 +
b0 >
b0 K
b10101011 H
b10101011 U
b101010 G
b101010 V
b101010 Z
11
#260000
b10001010 2
b10001010 F
b10001010 [
01
#265000
b11001010 ,
b11001010 A
b11001010 @
b1000001 !
b1000001 E
b11110111111 C
b110001001 "
b110001001 D
b110001001 B
b101010 G
b101010 V
b101010 Z
b10101011 H
b10101011 U
b10 J
b10 T
b10 Y
b10001010 #
b10001010 6
b10001010 S
b10011010 &
b10011010 9
b10011010 P
b101010 $
b101010 7
b101010 R
b10000010 '
b10000010 :
b10000010 O
b10101011 %
b10101011 8
b10101011 Q
b10101010 (
b10101010 ;
b10101010 N
11
#270000
b1101 5
01
#275000
b0 ,
b0 A
b110010 @
b1110011 !
b1110011 E
b11110001101 C
b10111111 "
b10111111 D
b11101000001 B
b11 J
b11 T
b11 Y
b10001010 &
b10001010 9
b10001010 P
b10011010 )
b10011010 <
b10011010 M
b101010 '
b101010 :
b101010 O
b10000010 *
b10000010 =
b10000010 L
b10101011 (
b10101011 ;
b10101011 N
b10101010 +
b10101010 >
b10101010 K
b10101111 H
b10101111 U
b10110110 G
b10110110 V
b10110110 Z
11
#280000
b101010 2
b101010 F
b101010 [
01
#285000
b10100100 ,
b10100100 A
b10100100 @
b11101000 !
b11101000 E
b11100011000 C
b10111100 "
b10111100 D
b10111100 B
b10110110 G
b10110110 V
b10110110 Z
b10101111 H
b10101111 U
b100 J
b100 T
b100 Y
b101010 #
b101010 6
b101010 S
b10001010 )
b10001010 <
b10001010 M
b10110110 $
b10110110 7
b10110110 R
b101010 *
b101010 =
b101010 L
b10101111 %
b10101111 8
b10101111 Q
b10101011 +
b10101011 >
b10101011 K
11
#290000
b1110 5
01
#295000
b0 ,
b0 A
b1101100 @
b110110000 !
b110110000 E
b11001010000 C
b101 J
b101 T
b101 Y
b101010 &
b101010 9
b101010 P
b10110110 '
b10110110 :
b10110110 O
b10101111 (
b10101111 ;
b10101111 N
b1101110 H
b1101110 U
b10110110 G
b10110110 V
b10110110 Z
11
#300000
b11101010 2
b11101010 F
b11101010 [
01
#305000
b0 ,
b0 A
b10010010 @
b100010011 !
b100010011 E
b11011101101 C
b1111111 "
b1111111 D
b1111111 B
b10110110 G
b10110110 V
b10110110 Z
b1101110 H
b1101110 U
b110 J
b110 T
b110 Y
b11101010 #
b11101010 6
b11101010 S
b101010 )
b101010 <
b101010 M
b10110110 *
b10110110 =
b10110110 L
b1101110 %
b1101110 8
b1101110 Q
b10101111 +
b10101111 >
b10101111 K
11
#310000
b1111 5
01
#315000
b0 ,
b0 A
b1101110 @
b11101111 !
b11101111 E
b11101111 C
b111 J
b111 T
b111 Y
b11101010 &
b11101010 9
b11101010 P
b1101110 (
b1101110 ;
b1101110 N
b10000010 H
b10000010 U
b10011010 G
b10011010 V
b10011010 Z
11
#320000
b101001 2
b101001 F
b101001 [
01
#325000
b0 @
b100011011 !
b100011011 E
b100011011 C
b11100101 "
b11100101 D
b11100011011 B
b10011010 G
b10011010 V
b10011010 Z
b10000010 H
b10000010 U
b0 J
b0 T
b0 Y
b101001 #
b101001 6
b101001 S
b11101010 )
b11101010 <
b11101010 M
b10011010 $
b10011010 7
b10011010 R
b10000010 %
b10000010 8
b10000010 Q
b1101110 +
b1101110 >
b1101110 K
11
#330000
b10000 5
01
#335000
b0 ,
b0 A
b111000 @
b1011001 !
b1011001 E
b11110100111 C
b111011111 "
b111011111 D
b111011111 B
b1 J
b1 T
b1 Y
b0 &
b0 9
b0 P
b0 )
b0 <
b0 M
b0 '
b0 :
b0 O
b0 *
b0 =
b0 L
b0 (
b0 ;
b0 N
b0 +
b0 >
b0 K
b101010 H
b101010 U
b10001010 G
b10001010 V
b10001010 Z
11
#340000
b10101011 2
b10101011 F
b10101011 [
01
#345000
b0 ,
b0 A
b11010 @
b110001 !
b110001 E
b11111001111 C
b111101001 "
b111101001 D
b111101001 B
b10001010 G
b10001010 V
b10001010 Z
b101010 H
b101010 U
b10 J
b10 T
b10 Y
b10101011 #
b10101011 6
b10101011 S
b101001 &
b101001 9
b101001 P
b10001010 $
b10001010 7
b10001010 R
b10011010 '
b10011010 :
b10011010 O
b101010 %
b101010 8
b101010 Q
b10000010 (
b10000010 ;
b10000010 N
11
#350000
b10001 5
01
#355000
b0 ,
b0 A
b110100 @
b100101010 !
b100101010 E
b100101010 C
b1010 "
b1010 D
b1010 B
b11 J
b11 T
b11 Y
b10101011 &
b10101011 9
b10101011 P
b101001 )
b101001 <
b101001 M
b10001010 '
b10001010 :
b10001010 O
b10011010 *
b10011010 =
b10011010 L
b101010 (
b101010 ;
b101010 N
b10000010 +
b10000010 >
b10000010 K
b10110110 H
b10110110 U
b101010 G
b101010 V
b101010 Z
11
#360000
b11001110 2
b11001110 F
b11001110 [
01
#365000
b10101100 ,
b10101100 A
b10101100 @
b110011011 !
b110011011 E
b110011011 C
b10001 "
b10001 D
b11111101111 B
b101010 G
b101010 V
b101010 Z
b10110110 H
b10110110 U
b100 J
b100 T
b100 Y
b11001110 #
b11001110 6
b11001110 S
b10101011 )
b10101011 <
b10101011 M
b101010 $
b101010 7
b101010 R
b10001010 *
b10001010 =
b10001010 L
b10110110 %
b10110110 8
b10110110 Q
b101010 +
b101010 >
b101010 K
11
#370000
b10010 5
01
#375000
b11011010 ,
b11011010 A
b11011010 @
b11001001 !
b11001001 E
b11001001 C
b101 J
b101 T
b101 Y
b11001110 &
b11001110 9
b11001110 P
b101010 '
b101010 :
b101010 O
b10110110 (
b10110110 ;
b10110110 N
b10110110 H
b10110110 U
b11101010 G
b11101010 V
b11101010 Z
11
#380000
b1011010 2
b1011010 F
b1011010 [
01
#385000
b0 ,
b0 A
b100000 @
b10100 !
b10100 E
b11111101100 C
b100001100 "
b100001100 D
b100001100 B
b11101010 G
b11101010 V
b11101010 Z
b10110110 H
b10110110 U
b110 J
b110 T
b110 Y
b1011010 #
b1011010 6
b1011010 S
b11001110 )
b11001110 <
b11001110 M
b11101010 $
b11101010 7
b11101010 R
b101010 *
b101010 =
b101010 L
b10110110 +
b10110110 >
b10110110 K
11
#390000
b10011 5
01
#395000
b0 ,
b0 A
b1000 @
b11111100 !
b11111100 E
b11100000100 C
b111 J
b111 T
b111 Y
b1011010 &
b1011010 9
b1011010 P
b11101010 '
b11101010 :
b11101010 O
b10011010 H
b10011010 U
b101001 G
b101001 V
b101001 Z
11
#400000
b10101010 2
b10101010 F
b10101010 [
01
#405000
b0 ,
b0 A
b1010010 @
b100000100 !
b100000100 E
b11011111100 C
b101001110 "
b101001110 D
b11010110010 B
b101001 G
b101001 V
b101001 Z
b10011010 H
b10011010 U
b0 J
b0 T
b0 Y
b10101010 #
b10101010 6
b10101010 S
b1011010 )
b1011010 <
b1011010 M
b101001 $
b101001 7
b101001 R
b11101010 *
b11101010 =
b11101010 L
b10011010 %
b10011010 8
b10011010 Q
11
#410000
b10100 5
01
#415000
b10100110 ,
b10100110 A
b10100110 @
b10000 !
b10000 E
b10000 C
b110010110 "
b110010110 D
b110010110 B
b1 J
b1 T
b1 Y
b0 &
b0 9
b0 P
b0 )
b0 <
b0 M
b0 '
b0 :
b0 O
b0 *
b0 =
b0 L
b0 (
b0 ;
b0 N
b0 +
b0 >
b0 K
b10001010 H
b10001010 U
b10101011 G
b10101011 V
b10101011 Z
11
#420000
b10001110 2
b10001110 F
b10001110 [
01
#425000
b0 ,
b0 A
b10010010 @
b100100 !
b100100 E
b100100 C
b1001101110 "
b1001101110 D
b1001101110 B
b10101011 G
b10101011 V
b10101011 Z
b10001010 H
b10001010 U
b10 J
b10 T
b10 Y
b10001110 #
b10001110 6
b10001110 S
b10101010 &
b10101010 9
b10101010 P
b10101011 $
b10101011 7
b10101011 R
b101001 '
b101001 :
b101001 O
b10001010 %
b10001010 8
b10001010 Q
b10011010 (
b10011010 ;
b10011010 N
11
#430000
b10101 5
01
#435000
b11110100 ,
b11110100 A
b11110100 @
b11100 !
b11100 E
b11100 C
b11011000 "
b11011000 D
b11011000 B
b11 J
b11 T
b11 Y
b10001110 &
b10001110 9
b10001110 P
b10101010 )
b10101010 <
b10101010 M
b10101011 '
b10101011 :
b10101011 O
b101001 *
b101001 =
b101001 L
b10001010 (
b10001010 ;
b10001010 N
b10011010 +
b10011010 >
b10011010 K
b101010 H
b101010 U
b11001110 G
b11001110 V
b11001110 Z
11
#440000
b1100110 2
b1100110 F
b1100110 [
01
#445000
b0 ,
b0 A
b10001010 @
b1001000 !
b1001000 E
b1001000 C
b1000010 "
b1000010 D
b11110111110 B
b11001110 G
b11001110 V
b11001110 Z
b101010 H
b101010 U
b100 J
b100 T
b100 Y
b1100110 #
b1100110 6
b1100110 S
b10001110 )
b10001110 <
b10001110 M
b11001110 $
b11001110 7
b11001110 R
b10101011 *
b10101011 =
b10101011 L
b101010 %
b101010 8
b101010 Q
b10001010 +
b10001010 >
b10001010 K
11
#450000
b10110 5
01
#455000
b11111010 ,
b11111010 A
b11111010 @
b10111000 !
b10111000 E
b10111000 C
b101 J
b101 T
b101 Y
b1100110 &
b1100110 9
b1100110 P
b11001110 '
b11001110 :
b11001110 O
b101010 (
b101010 ;
b101010 N
b11101010 H
b11101010 U
b1011010 G
b1011010 V
b1011010 Z
11
#460000
b10011010 2
b10011010 F
b10011010 [
01
#465000
b0 ,
b0 A
b1110000 @
b1100100 !
b1100100 E
b1100100 C
b1100 "
b1100 D
b1100 B
b1011010 G
b1011010 V
b1011010 Z
b11101010 H
b11101010 U
b110 J
b110 T
b110 Y
b10011010 #
b10011010 6
b10011010 S
b1100110 )
b1100110 <
b1100110 M
b1011010 $
b1011010 7
b1011010 R
b11001110 *
b11001110 =
b11001110 L
b11101010 %
b11101010 8
b11101010 Q
b101010 +
b101010 >
b101010 K
11
#470000
b10111 5
01
#475000
b11000000 ,
b11000000 A
b11000000 @
b10110100 !
b10110100 E
b11101001100 C
b111 J
b111 T
b111 Y
b10011010 &
b10011010 9
b10011010 P
b1011010 '
b1011010 :
b1011010 O
b11101010 (
b11101010 ;
b11101010 N
b101001 H
b101001 U
b10101010 G
b10101010 V
b10101010 Z
11
#480000
b11010 2
b11010 F
b11010 [
01
#485000
b10100000 ,
b10100000 A
b10100000 @
b11111111 !
b11111111 E
b11100000001 C
b10100001 "
b10100001 D
b11101011111 B
b10101010 G
b10101010 V
b10101010 Z
b101001 H
b101001 U
b0 J
b0 T
b0 Y
b11010 #
b11010 6
b11010 S
b10011010 )
b10011010 <
b10011010 M
b10101010 $
b10101010 7
b10101010 R
b1011010 *
b1011010 =
b1011010 L
b101001 %
b101001 8
b101001 Q
b11101010 +
b11101010 >
b11101010 K
11
#490000
b11000 5
01
#495000
b10100110 ,
b10100110 A
b10100110 @
b1111 !
b1111 E
b11111110001 C
b110010111 "
b110010111 D
b110010111 B
b1 J
b1 T
b1 Y
b0 &
b0 9
b0 P
b0 )
b0 <
b0 M
b0 '
b0 :
b0 O
b0 *
b0 =
b0 L
b0 (
b0 ;
b0 N
b0 +
b0 >
b0 K
b10101011 H
b10101011 U
b10001110 G
b10001110 V
b10001110 Z
11
#500000
b11101010 2
b11101010 F
b11101010 [
01
#505000
b11010010 ,
b11010010 A
b11010010 @
b100001 !
b100001 E
b100001 C
b1010110001 "
b1010110001 D
b1010110001 B
b10001110 G
b10001110 V
b10001110 Z
b10101011 H
b10101011 U
b10 J
b10 T
b10 Y
b11101010 #
b11101010 6
b11101010 S
b11010 &
b11010 9
b11010 P
b10001110 $
b10001110 7
b10001110 R
b10101010 '
b10101010 :
b10101010 O
b10101011 %
b10101011 8
b10101011 Q
b101001 (
b101001 ;
b101001 N
11
#510000
b11001 5
01
#515000
b11001000 ,
b11001000 A
b11001000 @
b10101110 !
b10101110 E
b10101110 C
b100011010 "
b100011010 D
b100011010 B
b11 J
b11 T
b11 Y
b11101010 &
b11101010 9
b11101010 P
b11010 )
b11010 <
b11010 M
b10001110 '
b10001110 :
b10001110 O
b10101010 *
b10101010 =
b10101010 L
b10101011 (
b10101011 ;
b10101011 N
b101001 +
b101001 >
b101001 K
b11001110 H
b11001110 U
b1100110 G
b1100110 V
b1100110 Z
11
#520000
b10101010 2
b10101010 F
b10101010 [
01
#525000
b0 ,
b0 A
b110 @
b10011001 !
b10011001 E
b10011001 C
b1101101 "
b1101101 D
b11110010011 B
b1100110 G
b1100110 V
b1100110 Z
b11001110 H
b11001110 U
b100 J
b100 T
b100 Y
b10101010 #
b10101010 6
b10101010 S
b11101010 )
b11101010 <
b11101010 M
b1100110 $
b1100110 7
b1100110 R
b10001110 *
b10001110 =
b10001110 L
b11001110 %
b11001110 8
b11001110 Q
b10101011 +
b10101011 >
b10101011 K
11
#530000
b11010 5
01
#535000
b0 ,
b0 A
b10011010 @
b101101 !
b101101 E
b11111010011 C
b101 J
b101 T
b101 Y
b10101010 &
b10101010 9
b10101010 P
b1100110 '
b1100110 :
b1100110 O
b11001110 (
b11001110 ;
b11001110 N
b1011010 H
b1011010 U
b10011010 G
b10011010 V
b10011010 Z
11
#540000
b10001011 2
b10001011 F
b10001011 [
01
#545000
b0 ,
b0 A
b1100110 @
b111011 !
b111011 E
b11111000101 C
b101011 "
b101011 D
b11111010101 B
b10011010 G
b10011010 V
b10011010 Z
b1011010 H
b1011010 U
b110 J
b110 T
b110 Y
b10001011 #
b10001011 6
b10001011 S
b10101010 )
b10101010 <
b10101010 M
b10011010 $
b10011010 7
b10011010 R
b1100110 *
b1100110 =
b1100110 L
b1011010 %
b1011010 8
b1011010 Q
b11001110 +
b11001110 >
b11001110 K
11
#550000
b11011 5
01
#555000
b0 ,
b0 A
b10011010 @
b1101111 !
b1101111 E
b1101111 C
b111 J
b111 T
b111 Y
b10001011 &
b10001011 9
b10001011 P
b10011010 '
b10011010 :
b10011010 O
b1011010 (
b1011010 ;
b1011010 N
b10101010 H
b10101010 U
b11010 G
b11010 V
b11010 Z
11
#560000
b10101100 2
b10101100 F
b10101100 [
01
#565000
b0 ,
b0 A
b100100 @
b10010101 !
b10010101 E
b10010101 C
b10001111 "
b10001111 D
b11101110001 B
b11010 G
b11010 V
b11010 Z
b10101010 H
b10101010 U
b0 J
b0 T
b0 Y
b10101100 #
b10101100 6
b10101100 S
b10001011 )
b10001011 <
b10001011 M
b11010 $
b11010 7
b11010 R
b10011010 *
b10011010 =
b10011010 L
b10101010 %
b10101010 8
b10101010 Q
b1011010 +
b1011010 >
b1011010 K
11
#570000
b11100 5
01
#575000
b0 ,
b0 A
b10001100 @
b10 !
b10 E
b10 C
b110001010 "
b110001010 D
b110001010 B
b1 J
b1 T
b1 Y
b0 &
b0 9
b0 P
b0 )
b0 <
b0 M
b0 '
b0 :
b0 O
b0 *
b0 =
b0 L
b0 (
b0 ;
b0 N
b0 +
b0 >
b0 K
b10001110 H
b10001110 U
b11101010 G
b11101010 V
b11101010 Z
11
#580000
b101000 2
b101000 F
b101000 [
01
#585000
b11101100 ,
b11101100 A
b11101100 @
b1100010 !
b1100010 E
b11110011110 C
b1010001010 "
b1010001010 D
b1010001010 B
b11101010 G
b11101010 V
b11101010 Z
b10001110 H
b10001110 U
b10 J
b10 T
b10 Y
b101000 #
b101000 6
b101000 S
b10101100 &
b10101100 9
b10101100 P
b11101010 $
b11101010 7
b11101010 R
b11010 '
b11010 :
b11010 O
b10001110 %
b10001110 8
b10001110 Q
b10101010 (
b10101010 ;
b10101010 N
11
#590000
b11101 5
01
#595000
b0 ,
b0 A
b110000 @
b100110000 !
b100110000 E
b11011010000 C
b100000000 "
b100000000 D
b100000000 B
b11 J
b11 T
b11 Y
b101000 &
b101000 9
b101000 P
b10101100 )
b10101100 <
b10101100 M
b11101010 '
b11101010 :
b11101010 O
b11010 *
b11010 =
b11010 L
b10001110 (
b10001110 ;
b10001110 N
b10101010 +
b10101010 >
b10101010 K
b1100110 H
b1100110 U
b10101010 G
b10101010 V
b10101010 Z
11
#600000
b10010010 2
b10010010 F
b10010010 [
01
#605000
b0 ,
b0 A
b1000100 @
b100000110 !
b100000110 E
b11011111010 C
b111110 "
b111110 D
b11111000010 B
b10101010 G
b10101010 V
b10101010 Z
b1100110 H
b1100110 U
b100 J
b100 T
b100 Y
b10010010 #
b10010010 6
b10010010 S
b101000 )
b101000 <
b101000 M
b10101010 $
b10101010 7
b10101010 R
b11101010 *
b11101010 =
b11101010 L
b1100110 %
b1100110 8
b1100110 Q
b10001110 +
b10001110 >
b10001110 K
11
#610000
b11110 5
01
#615000
b0 ,
b0 A
b1011100 @
b11110 !
b11110 E
b11110 C
b101 J
b101 T
b101 Y
b10010010 &
b10010010 9
b10010010 P
b10101010 '
b10101010 :
b10101010 O
b1100110 (
b1100110 ;
b1100110 N
b10011010 H
b10011010 U
b10001011 G
b10001011 V
b10001011 Z
11
#620000
b10110010 2
b10110010 F
b10110010 [
01
